module tasks/Telegram_Message_Sender/sender

go 1.17

require (
	github.com/go-telegram-bot-api/telegram-bot-api/v5 v5.5.1
	github.com/golang/protobuf v1.5.2
	github.com/google/uuid v1.1.2
	github.com/jmoiron/sqlx v1.3.5
	github.com/lib/pq v1.10.5
	github.com/spf13/cast v1.4.1
	go.uber.org/zap v1.21.0
	google.golang.org/grpc v1.45.0
)

require (
	go.uber.org/atomic v1.7.0 // indirect
	go.uber.org/multierr v1.6.0 // indirect
	golang.org/x/net v0.0.0-20211015210444-4f30a5c0130f // indirect
	golang.org/x/sys v0.0.0-20211019181941-9d821ace8654 // indirect
	golang.org/x/text v0.3.7 // indirect
	google.golang.org/genproto v0.0.0-20200526211855-cb27e3aa2013 // indirect
	google.golang.org/protobuf v1.26.0 // indirect
)
